{
	"teleporter":{"bright": true},
	"bars":{"seeThru": true},
	"bloodfountain":{"animation": {"speed": 0.08}},
	"brokenbars":{"seeThru": true,"solid": false},
	"candle":{"animation": {"speed": 0.06}},
	"conveyor":{"animation": {"speed": 0.06}},
	"conveyor2":{"animation": {"speed": 0.06}},
	"corpse0":{"solid": false},
	"corpse1":{"solid": false},
	"corpse2":{"solid": false},
	"darkwalltorch":{"animation": {"speed": 0.08}},
	"exitsign":{"animation": {"speed": 0.167}},
	"eyeball":{"animation": {"speed": 0.08}},
	"fire":{"animation": {"speed": 0.05}},
	"geoffrey":{"animation": {"speed": 0.167}},
	"invasionwall1":{"animation": {"speed": 0.08}},
	"lava":{"animation": {"speed": 0.05}, "bright": true},
	"moneypile":{"solid": false},
	"pillar":{"switchName": "pillar"},
	"prismirarch":{"seeThru": true,"solid": false},
	"prismirarch1":{"seeThru": true,"solid": false},
	"prismirarch2":{"seeThru": true,"solid": false},
	"prismirarch3":{"seeThru": true,"solid": false},
	"prismirstalagtite":{"solid": false},
	"prismirtorch":{"solid": false},
	"skeltal":{"animation": {"frameWidth": 128,"frameHeight": 128, "speed": 0.167}},
	"spacepiston":{"animation": {"speed": 0.05}},
	"spacewall_console_dark":{"switchName": "spacewall_console_dark_on"},
	"spacewall_console":{"switchName": "spacewall_console_on"},
	"switch_brick":{"switchName": "switch_brick_on"},
	"switch_prismir":{"switchName": "switch_prismir_on"},
	"switch_shaftwall":{"switchName": "switch_shaftwall_on"},
	"switch_space":{"switchName": "switch_space_on"},
	"switch_tent":{"switchName": "switch_tent_on"},
	"spacedoor":{"verticalDoor": true},
	"spacedoor_dark":{"verticalDoor": true}
}